Getting started with geoarrow • geoarrow
…
For large point data sets, it can be useful to represent geometry as a wk::xy(), which is a thin wrapper around data.frame(x = c(), y = c()). You can create these objects as geometry columns using handler = wk::xy_writer:

(places_xy <- places %>% 
  select(name, geometry) %>% 
  geoarrow_collect(handler = wk::xy_writer))
#> # A tibble: 7,255 × 2
#>    name           geometry            
#>    <chr>          <wk_xy>             
#>  1 Roskilde       (12.081925 55.64335)
#>  2 Esbjerg        ( 8.452075 55.46649)
#>  3 Randers        (10.037148 56.46175)
#>  4 Kolding        ( 9.479050 55.48950)
#>  5 Vejle          ( 9.533324 55.70001)
#>  6 Aarhus         (10.213405 56.14963)
#>  7 Odense         (10.385210 55.39972)
#>  8 Horsens        ( 9.844477 55.86117)
#>  9 Aalborg        ( 9.921526 57.04626)
#> 10 Englebjerggård (11.777372 55.20040)
#> # … with 7,245 more rows
…
